{
    "cordova-plugin-whitelist": {
        "source": {
            "type": "registry",
            "id": "cordova-plugin-whitelist@1"
        },
        "is_top_level": true,
        "variables": {}
    },
    "com.phonegap.plugins.barcodescanner": {
        "source": {
            "type": "git",
            "url": "http://github.com/phonegap/phonegap-plugin-barcodescanner",
            "subdir": "."
        },
        "is_top_level": true,
        "variables": {}
    },
    "cordova-plugin-network-information": {
        "source": {
            "type": "git",
            "url": "https://git-wip-us.apache.org/repos/asf/cordova-plugin-network-information.git",
            "subdir": "."
        },
        "is_top_level": true,
        "variables": {}
    },
    "cordova-plugin-splashscreen": {
        "source": {
            "type": "registry",
            "id": "cordova-plugin-splashscreen"
        },
        "is_top_level": true,
        "variables": {}
    },
    "cordova-plugin-device-motion": {
        "source": {
            "type": "git",
            "url": "https://git-wip-us.apache.org/repos/asf/cordova-plugin-device-motion.git",
            "subdir": "."
        },
        "is_top_level": true,
        "variables": {}
    },
    "cordova-plugin-device-orientation": {
        "source": {
            "type": "git",
            "url": "https://git-wip-us.apache.org/repos/asf/cordova-plugin-device-orientation.git",
            "subdir": "."
        },
        "is_top_level": true,
        "variables": {}
    },
    "cordova-plugin-geolocation": {
        "source": {
            "type": "git",
            "url": "https://git-wip-us.apache.org/repos/asf/cordova-plugin-geolocation.git",
            "subdir": "."
        },
        "is_top_level": true,
        "variables": {}
    },
    "com.megster.cordova.bluetoothserial": {
        "source": {
            "type": "registry",
            "id": "com.megster.cordova.bluetoothserial"
        },
        "is_top_level": true,
        "variables": {}
    },
    "com.randdusing.bluetoothle": {
        "source": {
            "type": "git",
            "url": "https://github.com/randdusing/BluetoothLE",
            "subdir": "."
        },
        "is_top_level": true,
        "variables": {}
    },
    "org.apache.cordova.wifiinfo": {
        "source": {
            "type": "git",
            "url": "https://github.com/HondaDai/PhoneGap-WifiInfoPlugin",
            "subdir": "."
        },
        "is_top_level": true,
        "variables": {}
    }
}